num,dir,name,suff
6124,N,PEORIA E,AV
5656,S,89 E,AV
1381,E,67 S,ST
2623,E,APACHE N,ST
1812,W,CAMERON N,ST
5137,E,25 S,ST
7704,E,38 S,ST
17,E,25 S,ST
7129,S,BRADEN E,AV
16304,E,47 S,PL
3341,S,85 E,AV
6386,S,80 E,AV
2508,N,ROCKFORD E,AV
2224,S,119 E,AV
5108,E,88 S,CT
1103,E,EASTON N,ST
3727,S,XANTHUS E,AV
1520,S,137 E,AV
1932,N,MAIN W,ST
204,E,35 S,ST
9115,E,LATIMER N,PL
4410,S,135 E,AV
2151,E,31 S,ST
6831,E,57 S,PL
1343,S,FLORENCE E,AV
5029,S,33 W,AV
6202,W,EDISON N,ST
5728,E,62 S,ST
835,N,DELAWARE E,PL
267,S,118 E,AV
1319,E,51 N,PL
1510,E,35 S,PL
2540,S,FLORENCE E,AV
10612,E,17 S,PL
5205,S,BIRMINGHAM E,PL
9074,E,28 S,ST
726,W,20 S,ST
6345,S,70 E,AV
1417,E,JASPER N,ST
5645,S,QUEBEC E,AV
1536,N,BIRMINGHAM E,PL
5331,E,27 S,ST
3733,W,45 S,PL
3211,S,127 E,AV
2215,E,47 N,PL
4804,S,VICTOR E,AV
9249,S,URBANA E,AV
1743,E,YOUNG N,PL
2650,S,90 E,AV
1029,N,UTICA E,AV
2008,S,123 E,AV
5148,E,36 S,ST
123,S,166 E,AV
5922,E,48 S,ST
1138,N,BOSTON E,AV
11830,S,OSWEGO E,AV
7443,S,GRANITE E,AV
550,S,HUDSON E,AV
9,N,LAWTON W,AV
6647,S,ROCKFORD E,AV
2424,E,29 S,ST
3224,S,TROOST E,AV
7029,E,63 S,ST
2606,W,66 S,ST
5029,S,86 E,AV
2864,E,44 N,PL
10104,S,69 E,AV
2234,N,DARLINGTON E,PL
855,S,INDIANAPOLIS E,AV
1578,E,59 S,ST
2405,S,PHOENIX W,AV
509,S,DETROIT E,AV
11019,S,85 E,AV
3753,S,YALE E,AV
7703,S,YALE E,AV
2676,S,RICHMOND E,AV
4709,S,187 E,AV
128,N,LOUISVILLE E,AV
3429,E,56 S,PL
4415,S,BIRMINGHAM E,AV
3729,W,44 S,ST
4410,E,XYLER N,ST
1435,S,ERIE E,AV
2840,E,46 N,ST
716,N,MEMORIAL E,DR
8516,S,CANTON E,AV
3914,N,WINSTON E,AV
5323,S,YORKTOWN E,AV
12471,E,13 S,PL
4908,N,TRENTON E,AV
3307,E,EASTON N,ST
2828,E,29 S,ST
3216,E,HASKELL N,ST
9212,E,60 S,ST
3246,S,121 E,AV
4935,W,21 S,ST
1228,S,GALVESTON W,AV
11119,S,HUDSON E,AV
8714,E,109 S,ST
2011,N,BIRMINGHAM E,PL
